^C:\USERS\FORO0012\DOCUMENTS\VISUAL STUDIO 2015\PROJECTS\VISUAL STUDIO_IOANNIS\TTCLIB\ISOTROPICAI\BUILD\RELEASE\ISOTROPICAGENT.OBJ|C:\USERS\FORO0012\DOCUMENTS\VISUAL STUDIO 2015\PROJECTS\VISUAL STUDIO_IOANNIS\TTCLIB\ISOTROPICAI\BUILD\RELEASE\ISOTROPICENGINE.OBJ
C:\USERS\FORO0012\DOCUMENTS\VISUAL STUDIO 2015\PROJECTS\VISUAL STUDIO_IOANNIS\TTCLIB\BUILD\RELEASE\ISOTROPICAI.DLL
C:\USERS\FORO0012\DOCUMENTS\VISUAL STUDIO 2015\PROJECTS\VISUAL STUDIO_IOANNIS\TTCLIB\BUILD\RELEASE\ISOTROPICAI.IPDB
C:\USERS\FORO0012\DOCUMENTS\VISUAL STUDIO 2015\PROJECTS\VISUAL STUDIO_IOANNIS\TTCLIB\BUILD\RELEASE\ISOTROPICAI.IOBJ
C:\USERS\FORO0012\DOCUMENTS\VISUAL STUDIO 2015\PROJECTS\VISUAL STUDIO_IOANNIS\TTCLIB\BUILD\RELEASE\ISOTROPICAI.PDB
