^C:\USERS\FORO0012\DOCUMENTS\VISUAL STUDIO 2015\PROJECTS\VISUAL STUDIO_IOANNIS\TTCLIB\ADVERSARIALAI\BUILD\RELEASE\ADVERSARIALAGENT.OBJ|C:\USERS\FORO0012\DOCUMENTS\VISUAL STUDIO 2015\PROJECTS\VISUAL STUDIO_IOANNIS\TTCLIB\ADVERSARIALAI\BUILD\RELEASE\ADVERSARIALENGINE.OBJ
C:\WINDOWS\GLOBALIZATION\SORTING\SORTDEFAULT.NLS
C:\USERS\FORO0012\DOCUMENTS\VISUAL STUDIO 2015\PROJECTS\VISUAL STUDIO_IOANNIS\TTCLIB\BUILD\RELEASE\GCALIB.LIB
C:\USERS\FORO0012\DOCUMENTS\VISUAL STUDIO 2015\PROJECTS\VISUAL STUDIO_IOANNIS\TTCLIB\BUILD\RELEASE\VISUALISER.LIB
C:\PROGRAM FILES (X86)\WINDOWS KITS\8.1\LIB\WINV6.3\UM\X86\KERNEL32.LIB
C:\PROGRAM FILES (X86)\WINDOWS KITS\8.1\LIB\WINV6.3\UM\X86\USER32.LIB
C:\PROGRAM FILES (X86)\WINDOWS KITS\8.1\LIB\WINV6.3\UM\X86\GDI32.LIB
C:\PROGRAM FILES (X86)\WINDOWS KITS\8.1\LIB\WINV6.3\UM\X86\WINSPOOL.LIB
C:\PROGRAM FILES (X86)\WINDOWS KITS\8.1\LIB\WINV6.3\UM\X86\COMDLG32.LIB
C:\PROGRAM FILES (X86)\WINDOWS KITS\8.1\LIB\WINV6.3\UM\X86\ADVAPI32.LIB
C:\PROGRAM FILES (X86)\WINDOWS KITS\8.1\LIB\WINV6.3\UM\X86\SHELL32.LIB
C:\PROGRAM FILES (X86)\WINDOWS KITS\8.1\LIB\WINV6.3\UM\X86\OLE32.LIB
C:\PROGRAM FILES (X86)\WINDOWS KITS\8.1\LIB\WINV6.3\UM\X86\OLEAUT32.LIB
C:\PROGRAM FILES (X86)\WINDOWS KITS\8.1\LIB\WINV6.3\UM\X86\UUID.LIB
C:\PROGRAM FILES (X86)\WINDOWS KITS\8.1\LIB\WINV6.3\UM\X86\ODBC32.LIB
C:\PROGRAM FILES (X86)\WINDOWS KITS\8.1\LIB\WINV6.3\UM\X86\ODBCCP32.LIB
C:\USERS\FORO0012\DOCUMENTS\VISUAL STUDIO 2015\PROJECTS\VISUAL STUDIO_IOANNIS\TTCLIB\ADVERSARIALAI\BUILD\RELEASE\ADVERSARIALAGENT.OBJ
C:\USERS\FORO0012\DOCUMENTS\VISUAL STUDIO 2015\PROJECTS\VISUAL STUDIO_IOANNIS\TTCLIB\ADVERSARIALAI\BUILD\RELEASE\ADVERSARIALENGINE.OBJ
C:\PROGRAM FILES (X86)\MICROSOFT VISUAL STUDIO 14.0\VC\BIN\C2.DLL
C:\PROGRAM FILES (X86)\MICROSOFT VISUAL STUDIO 14.0\VC\LIB\MSVCPRT.LIB
C:\PROGRAM FILES (X86)\MICROSOFT VISUAL STUDIO 14.0\VC\LIB\MSVCRT.LIB
C:\PROGRAM FILES (X86)\MICROSOFT VISUAL STUDIO 14.0\VC\LIB\OLDNAMES.LIB
C:\PROGRAM FILES (X86)\MICROSOFT VISUAL STUDIO 14.0\VC\LIB\VCOMP.LIB
C:\PROGRAM FILES (X86)\MICROSOFT VISUAL STUDIO 14.0\VC\LIB\VCRUNTIME.LIB
C:\PROGRAM FILES (X86)\WINDOWS KITS\10\LIB\10.0.10240.0\UCRT\X86\UCRT.LIB
C:\WINDOWS\SYSTEM32\TZRES.DLL
C:\PROGRAM FILES (X86)\MICROSOFT VISUAL STUDIO 14.0\VC\BIN\1033\LINKUI.DLL
C:\USERS\FORO0012\DOCUMENTS\VISUAL STUDIO 2015\PROJECTS\VISUAL STUDIO_IOANNIS\TTCLIB\BUILD\RELEASE\ADVERSARIALAI.IPDB
C:\USERS\FORO0012\DOCUMENTS\VISUAL STUDIO 2015\PROJECTS\VISUAL STUDIO_IOANNIS\TTCLIB\BUILD\RELEASE\ADVERSARIALAI.IOBJ
C:\PROGRAM FILES (X86)\WINDOWS KITS\8.1\BIN\X86\RC.EXE
C:\PROGRAM FILES (X86)\MICROSOFT VISUAL STUDIO 14.0\VC\BIN\CVTRES.EXE
C:\WINDOWS\SYSTEM32\RSAENH.DLL
